[gd_resource type="AtlasTexture" load_steps=2 format=2]

[ext_resource path="res://assets/Particles/cute-particle.png" type="Texture" id=1]

[resource]
flags = 23
atlas = ExtResource( 1 )
region = Rect2( 490.678, 12.9553, 496.745, 451.94 )
