[gd_scene load_steps=3 format=2]

[ext_resource path="res://assets/Models/UrbanKit/detail_awningWide.glb" type="PackedScene" id=1]

[sub_resource type="ConcavePolygonShape" id=1]
data = PoolVector3Array( -0.65, 0.34, 0.1479, -0.65, 0.349, 0.1779, -0.65, 0, 0.1779, -0.65, 0, 0.1779, -0.65, 0, 0.1479, -0.65, 0.34, 0.1479, 0.15, 0, 0.1479, 0.15, 0, 0.1779, 0.15, 0.349, 0.1779, 0.15, 0.349, 0.1779, 0.15, 0.34, 0.1479, 0.15, 0, 0.1479, 0.15, 0.349, 0.1779, 0.15, 0, 0.1779, 0.12, 0, 0.1779, 0.12, 0, 0.1779, 0.12, 0.349, 0.1779, 0.15, 0.349, 0.1779, -0.62, 0, 0.1479, -0.62, 0, 0.1779, -0.62, 0.349, 0.1779, -0.62, 0.349, 0.1779, -0.62, 0.34, 0.1479, -0.62, 0, 0.1479, 0.12, 0.34, 0.1479, 0.12, 0.349, 0.1779, 0.12, 0, 0.1779, 0.12, 0, 0.1779, 0.12, 0, 0.1479, 0.12, 0.34, 0.1479, 0.12, 0.34, 0.1479, 0.12, 0, 0.1479, 0.15, 0, 0.1479, 0.15, 0, 0.1479, 0.15, 0.34, 0.1479, 0.12, 0.34, 0.1479, -0.65, 0.34, 0.1479, -0.65, 0, 0.1479, -0.62, 0, 0.1479, -0.62, 0, 0.1479, -0.62, 0.34, 0.1479, -0.65, 0.34, 0.1479, -0.62, 0.349, 0.1779, -0.62, 0, 0.1779, -0.65, 0, 0.1779, -0.65, 0, 0.1779, -0.65, 0.349, 0.1779, -0.62, 0.349, 0.1779, -0.65, 0.3556, 0.1, -0.65, 0.3256, 0.1, 0.15, 0.3256, 0.1, 0.15, 0.3256, 0.1, 0.15, 0.3556, 0.1, -0.65, 0.3556, 0.1, -0.65, 0.3556, 0.1, -0.65, 0.4, 0.2479, -0.65, 0.37, 0.2479, -0.65, 0.37, 0.2479, -0.65, 0.349, 0.1779, -0.65, 0.3556, 0.1, -0.65, 0.349, 0.1779, -0.65, 0.34, 0.1479, -0.65, 0.3556, 0.1, -0.65, 0.34, 0.1479, -0.65, 0.3256, 0.1, -0.65, 0.3556, 0.1, -0.65, 0.4, 0.2479, -0.65, 0.3556, 0.1, 0.15, 0.3556, 0.1, 0.15, 0.3556, 0.1, 0.15, 0.4, 0.2479, -0.65, 0.4, 0.2479, 0.15, 0.349, 0.1779, 0.15, 0.37, 0.2479, 0.15, 0.4, 0.2479, 0.15, 0.4, 0.2479, 0.15, 0.3556, 0.1, 0.15, 0.349, 0.1779, 0.15, 0.3556, 0.1, 0.15, 0.34, 0.1479, 0.15, 0.349, 0.1779, 0.15, 0.3556, 0.1, 0.15, 0.3256, 0.1, 0.15, 0.34, 0.1479, 0.15, 0.4, 0.2479, 0.15, 0.37, 0.2479, -0.65, 0.37, 0.2479, -0.65, 0.37, 0.2479, -0.65, 0.4, 0.2479, 0.15, 0.4, 0.2479, 0.15, 0.3256, 0.1, -0.65, 0.3256, 0.1, -0.65, 0.34, 0.1479, -0.65, 0.34, 0.1479, -0.62, 0.34, 0.1479, 0.15, 0.3256, 0.1, -0.62, 0.34, 0.1479, -0.62, 0.349, 0.1779, 0.15, 0.3256, 0.1, -0.62, 0.349, 0.1779, 0.12, 0.34, 0.1479, 0.15, 0.3256, 0.1, 0.12, 0.34, 0.1479, 0.15, 0.34, 0.1479, 0.15, 0.3256, 0.1, 0.12, 0.349, 0.1779, 0.12, 0.34, 0.1479, -0.62, 0.349, 0.1779, 0.15, 0.37, 0.2479, 0.12, 0.349, 0.1779, -0.62, 0.349, 0.1779, -0.65, 0.37, 0.2479, 0.15, 0.37, 0.2479, -0.62, 0.349, 0.1779, -0.62, 0.349, 0.1779, -0.65, 0.349, 0.1779, -0.65, 0.37, 0.2479, 0.15, 0.37, 0.2479, 0.15, 0.349, 0.1779, 0.12, 0.349, 0.1779, 0.15, 0, 0.1479, 0.12, 0, 0.1479, 0.12, 0, 0.1779, 0.12, 0, 0.1779, 0.15, 0, 0.1779, 0.15, 0, 0.1479, -0.62, 0, 0.1479, -0.65, 0, 0.1479, -0.65, 0, 0.1779, -0.65, 0, 0.1779, -0.62, 0, 0.1779, -0.62, 0, 0.1479 )

[node name="detail_awningWide" instance=ExtResource( 1 )]

[node name="StaticBody" type="StaticBody" parent="tmpParent/detail_awningWide" index="0"]

[node name="CollisionShape" type="CollisionShape" parent="tmpParent/detail_awningWide/StaticBody" index="0"]
shape = SubResource( 1 )
