[gd_scene load_steps=3 format=2]

[ext_resource path="res://assets/Models/CityKit/roof_side.glb" type="PackedScene" id=1]

[sub_resource type="ConcavePolygonShape" id=1]
data = PoolVector3Array( 0.2, 0.03, 0.2, 0.2, 0, 0.2, -0.2, 0, 0.2, -0.2, 0, 0.2, -0.2, 0.03, 0.2, 0.2, 0.03, 0.2, -0.2, 0.03, 0.2, -0.2, 0.03, 0.22, 0.2, 0.03, 0.22, 0.2, 0.03, 0.22, 0.2, 0.03, 0.2, -0.2, 0.03, 0.2, 0.2, 0.08, 0.22, 0.2, 0.03, 0.22, -0.2, 0.03, 0.22, -0.2, 0.03, 0.22, -0.2, 0.08, 0.22, 0.2, 0.08, 0.22, -0.2, 0.08, 0.15, -0.2, 0, 0.15, 0.2, 0, 0.15, 0.2, 0, 0.15, 0.2, 0.08, 0.15, -0.2, 0.08, 0.15, 0.2, 0, 0.15, 0.2, 0, 0.2, 0.2, 0.03, 0.2, 0.2, 0.08, 0.15, 0.2, 0, 0.15, 0.2, 0.03, 0.2, 0.2, 0.08, 0.22, 0.2, 0.08, 0.15, 0.2, 0.03, 0.2, 0.2, 0.03, 0.2, 0.2, 0.03, 0.22, 0.2, 0.08, 0.22, 0.2, 0.08, 0.22, -0.2, 0.08, 0.22, -0.2, 0.08, 0.15, -0.2, 0.08, 0.15, 0.2, 0.08, 0.15, 0.2, 0.08, 0.22, -0.2, 0.08, 0.15, -0.2, 0.08, 0.22, -0.2, 0.03, 0.22, -0.2, 0.03, 0.22, -0.2, 0.03, 0.2, -0.2, 0.08, 0.15, -0.2, 0, 0.15, -0.2, 0.08, 0.15, -0.2, 0.03, 0.2, -0.2, 0.03, 0.2, -0.2, 0, 0.2, -0.2, 0, 0.15, -0.2, 0, 0.15, -0.2, 0, -0.2, 0.2, 0, -0.2, 0.2, 0, -0.2, 0.2, 0, 0.15, -0.2, 0, 0.15, -0.2, 0, 0.15, 0.2, 0, 0.15, 0.2, 0, 0.2, 0.2, 0, 0.2, -0.2, 0, 0.2, -0.2, 0, 0.15 )

[node name="roof_side" instance=ExtResource( 1 )]

[node name="StaticBody" type="StaticBody" parent="tmpParent/roof_side" index="0"]

[node name="CollisionShape" type="CollisionShape" parent="tmpParent/roof_side/StaticBody" index="0"]
shape = SubResource( 1 )
